<svg xmlns="http://www.w3.org/2000/svg" viewBox="0 0 105.75 86">
<title>filter</title>
<g id="filter">
<path d="M20.5,47.16V4.5a4.5,4.5,0,0,0-9,0V47.16a16,16,0,0,0,0,30.68V81.5a4.5,4.5,0,0,0,9,0V77.84a16,16,0,0,0,0-30.68Zm0,20.69A7,7,0,1,1,23,62.5,7,7,0,0,1,20.5,67.85Z"/>
<path d="M57.25,7.66V4.5a4.5,4.5,0,0,0-9,0V7.66a16,16,0,0,0,0,30.68V81.5a4.5,4.5,0,0,0,9,0V38.34a16,16,0,0,0,0-30.68Zm0,20.69A7,7,0,1,1,59.75,23,7,7,0,0,1,57.25,28.35Z"/>
<path d="M94.25,42.66V4.5a4.5,4.5,0,0,0-9,0V42.66a16,16,0,0,0,0,30.68V81.5a4.5,4.5,0,0,0,9,0V73.34a16,16,0,0,0,0-30.68Zm0,20.69A7,7,0,1,1,96.75,58,7,7,0,0,1,94.25,63.35Z"/>
</g>
</svg>