<?xml version="1.0" encoding="utf-8"?>
<!-- Generator: Adobe Illustrator 23.0.2, SVG Export Plug-In . SVG Version: 6.00 Build 0)  -->
<svg version="1.1" id="koreanNews" xmlns="http://www.w3.org/2000/svg" xmlns:xlink="http://www.w3.org/1999/xlink" x="0px" y="0px"
	 viewBox="0 0 110.1 83.4" style="enable-background:new 0 0 110.1 83.4;" xml:space="preserve">
<style type="text/css">
	.st0{fill:#949494;}
</style>
<path id="letter" class="st0" d="M110.1,52c0-0.2,0-0.4,0-0.6c0-0.1,0-0.2,0-0.3c0-0.2-0.1-0.4-0.1-0.6c0-0.1,0-0.2-0.1-0.3
	c-0.1-0.2-0.1-0.4-0.2-0.5c0-0.1-0.1-0.2-0.1-0.3c-0.1-0.3-0.3-0.5-0.5-0.7L68.2,1.5l0,0C68,1.3,67.9,1.2,67.7,1
	c0,0-0.1-0.1-0.1-0.1c-1-0.7-2.1-1-3.3-0.9l0,0L64,0.1c-0.2,0-0.4,0.1-0.7,0.2c-0.2,0.1-0.3,0.1-0.4,0.2c-0.1,0-0.2,0.1-0.4,0.2
	c-0.2,0.1-0.3,0.2-0.5,0.3C62,1,61.9,1,61.8,1.1l0,0l0,0L30.4,28.3c-1.9,1.6-2.1,4.5-0.5,6.3c0,0,0,0,0,0l40.3,46.7
	c0.6,1,1.6,1.7,2.8,2l0.3,0.1c0.1,0,0.1,0,0.2,0h0.4h0.2c1.1,0,2.1-0.4,2.9-1l31.5-27.2c0,0,0.1-0.1,0.1-0.1
	c0.1-0.1,0.3-0.3,0.4-0.4l0.2-0.2c0.1-0.2,0.2-0.3,0.3-0.5l0.1-0.2c0.1-0.2,0.2-0.4,0.3-0.7c0,0,0-0.1,0-0.1l0,0c0-0.1,0-0.2,0-0.3
	C109.9,52.4,109.9,52.2,110.1,52C110,52.1,110.1,52,110.1,52z M43.5,36.7l20.9,0.5l0.7,5.3c0.2,1.8,1.5,3.3,3.3,3.8l4.6,1.2
	l-2.4,20.6L43.5,36.7z M61.4,13.4l1.9,14.8l-18.5-0.5L61.4,13.4z M81.8,49.9l14.4,3.9L79.7,68.1L81.8,49.9z M73.7,38.4l-2.5-19.6
	l21.3,24.7L73.7,38.4z"/>
<path id="wind1" class="st0" d="M10.5,21.4h21c2.5,0,4.5-2,4.5-4.5s-2-4.5-4.5-4.5h-21c-2.5,0-4.5,2-4.5,4.5S8,21.4,10.5,21.4z"/>
<path id="wind2" class="st0" d="M28,41.9c0-2.5-2-4.5-4.5-4.5c0,0,0,0,0,0h-19c-2.5,0-4.5,2-4.5,4.5s2,4.5,4.5,4.5h19
	C26,46.4,28,44.4,28,41.9z"/>
<path id="wind3" class="st0" d="M37,52.4H21c-2.5,0-4.5,2-4.5,4.5s2,4.5,4.5,4.5h16c2.5,0,4.5-2,4.5-4.5S39.5,52.4,37,52.4z"/>
</svg>
