<?xml version="1.0" encoding="utf-8"?>
<!-- Generator: Adobe Illustrator 23.0.2, SVG Export Plug-In . SVG Version: 6.00 Build 0)  -->
<svg version="1.1" id="login" xmlns="http://www.w3.org/2000/svg" xmlns:xlink="http://www.w3.org/1999/xlink" x="0px" y="0px"
	 viewBox="0 0 79.5 105" style="enable-background:new 0 0 79.5 105;" xml:space="preserve">
<style type="text/css">
	.st0{fill:#FF5E00;}
</style>
<path id="in" class="st0" d="M58,105H37c-11.9,0-21.5-9.6-21.5-21.5c0-2.5,2-4.5,4.5-4.5s4.5,2,4.5,4.5C24.5,90.4,30.1,96,37,96h21
	c6.9,0,12.5-5.6,12.5-12.5v-62C70.5,14.6,64.9,9,58,9H37c-6.9,0-12.5,5.6-12.5,12.5c0,2.5-2,4.5-4.5,4.5s-4.5-2-4.5-4.5l0,0
	C15.5,9.6,25.1,0,37,0h21c11.9,0,21.5,9.6,21.5,21.5v62C79.5,95.4,69.9,105,58,105z"/>
<path id="arrow" class="st0" d="M51.3,55c0.1-0.1,0.2-0.3,0.2-0.4c0.1-0.1,0.1-0.2,0.2-0.3c0.1-0.2,0.1-0.3,0.2-0.5s0.1-0.2,0.1-0.3
	c0.1-0.6,0.1-1.2,0-1.7c0-0.1-0.1-0.2-0.1-0.3s-0.1-0.3-0.2-0.5c-0.1-0.1-0.1-0.2-0.2-0.3c-0.1-0.1-0.1-0.3-0.2-0.4S51.1,50.1,51,50
	s-0.1-0.2-0.2-0.3L36.3,34c-1.7-1.8-4.6-1.9-6.4-0.2s-1.9,4.5-0.2,6.3l7.4,7.9H4.5C2,48,0,50,0,52.5S2,57,4.5,57h32.6l-7.4,7.9
	c-1.7,1.8-1.6,4.7,0.2,6.4c1.8,1.7,4.7,1.6,6.4-0.2l0,0l14.5-15.5c0.1-0.1,0.1-0.2,0.2-0.3S51.2,55.1,51.3,55z"/>
</svg>
