<?xml version="1.0" encoding="utf-8"?>
<!-- Generator: Adobe Illustrator 23.0.2, SVG Export Plug-In . SVG Version: 6.00 Build 0)  -->
<svg version="1.1" id="marker" xmlns="http://www.w3.org/2000/svg" xmlns:xlink="http://www.w3.org/1999/xlink" x="0px" y="0px"
	 viewBox="0 0 89 104.5" style="enable-background:new 0 0 89 104.5;" xml:space="preserve">
<style type="text/css">
	.st0{fill:#949494;}
</style>
<path id="markerCircle" class="st0" d="M44.5,26C34.3,26,26,34.3,26,44.5S34.3,63,44.5,63S63,54.7,63,44.5C63,34.3,54.7,26,44.5,26z
	 M44.5,54c-5.2,0-9.5-4.3-9.5-9.5s4.3-9.5,9.5-9.5s9.5,4.3,9.5,9.5C54,49.7,49.7,54,44.5,54z"/>
<path id="markerLine" class="st0" d="M44.5,0C19.9,0,0,19.9,0,44.4c0,11,4,21.6,11.4,29.7c0.3,0.3,0.6,0.7,0.9,1l27.2,27.3
	c2.7,2.7,7.2,2.7,9.9,0c0,0,0,0,0,0l27.4-27.4l0.9-0.9C94,55.9,92.5,27.8,74.2,11.4C66.1,4,55.5,0,44.5,0z M70.5,68.6l-26,26.1
	l-25.9-26C5.2,54.3,6,31.9,20.3,18.5s36.8-12.6,50.2,1.8C83.2,33.9,83.2,55,70.5,68.6L70.5,68.6z"/>
</svg>
