<?xml version="1.0" encoding="utf-8"?>
<!-- Generator: Adobe Illustrator 23.0.2, SVG Export Plug-In . SVG Version: 6.00 Build 0)  -->
<svg version="1.1" id="phoneB" xmlns="http://www.w3.org/2000/svg" xmlns:xlink="http://www.w3.org/1999/xlink" x="0px" y="0px"
	 viewBox="0 0 97.8 96.2" style="enable-background:new 0 0 97.8 96.2;" xml:space="preserve">
<style type="text/css">
	.st0{fill:#949494;}
</style>
<path id="phonebook" class="st0" d="M73.8,96.2c-4.4,0-8.9-0.6-13.2-1.8c-8.3-2.3-24-11.1-41-28.1S0.6,31.4,0.4,28.6
	c-2-10.8,3.7-19.5,8.9-25c2.1-2.2,5-3.5,8-3.6c3.1-0.1,6,1.1,8.2,3.2l13.5,12.9c5,4.8,5.2,12.7,0.4,17.7c-0.1,0.1-0.1,0.1-0.2,0.2
	l-3.1,3c4.6,9.3,14.8,18.2,23.6,23.9l4.7-4.3c4.7-4.3,11.9-4.4,16.7-0.2l12,10.3c3.2,2.8,4.4,7.6,4.5,11.1c0.1,3.7-1,6.9-3.1,8.9
	c-5.7,5.5-9.6,8.1-12.9,8.8C79.2,95.9,76.5,96.2,73.8,96.2z M17.7,9L17.7,9c-0.7,0-1.3,0.3-1.8,0.8c-3.8,4-8,10.2-6.6,17.4
	c0,0.2,0.1,0.4,0.1,0.6c0,0.1,1.2,16.6,16.7,32.1c16.9,16.9,31.2,24.2,37,25.8c5.5,1.6,11.3,1.9,16.9,0.9c0.5-0.1,2.6-0.9,8.4-6.4
	c0.8-1,0.3-5.5-1.1-6.7l-12-10.3C74,62,72,62,70.6,63.2l-6.1,5.6c-2.1,2-5.3,2.3-7.8,0.8c-5.3-3.2-23-15-29.5-30.6
	c-1-2.4-0.5-5.2,1.4-7.1l4.3-4.3c0.7-0.7,1-1.6,1-2.5c0-0.9-0.4-1.8-1.1-2.5L19.4,9.7C18.9,9.3,18.3,9,17.7,9z"/>
</svg>
