{
    "CoreTelephony.framework": 1,
    "CoreLocation.framework": 3,
    "CoreBluetooth.framework": 1,
    "Photos.framework": 1,
    "AVFoundation.framework": 3,
    "UserNotifications.framework": 1,
    "Contacts.framework": 1,
    "EventKit.framework": 2,
    "CoreMotion.framework": 1,
    "QuartzCore.framework": 1,
    "AuthenticationServices.framework": 1
}